# 3ds Max Wavefront OBJ Exporter v0.97b - (c)2007 guruware
# File Created: 09.05.2018 14:47:54

mtllib Roof.mtl

#
# object Box001
#

v  0.0000 -3.6790 120.3884
v  10.0060 -3.6790 120.3884
v  10.0060 -3.6790 130.3773
v  0.0000 -3.6790 130.3773
v  10.0060 -0.6790 130.3773
v  10.0060 -0.6790 120.3884
v  0.0000 -0.6790 120.3884
v  0.0000 -0.6790 130.3773
v  210.0000 -3.6790 120.3884
v  210.0000 -0.6790 120.3884
v  210.0000 -0.6790 130.3773
v  210.0000 -3.6790 130.3773
v  200.0164 -3.6790 -79.6227
v  200.0164 -0.6790 -79.6227
v  210.0000 -0.6790 -79.6227
v  210.0000 -3.6790 -79.6227
v  0.0000 -3.6790 -69.6277
v  0.0000 -0.6790 -69.6277
v  0.0000 -0.6790 -79.6227
v  0.0000 -3.6790 -79.6227
v  110.0063 -3.6790 -79.6227
v  110.0063 -3.6790 -69.6277
v  100.0031 -3.6790 -69.6277
v  100.0031 -3.6790 -79.6227
v  110.0063 -0.6790 130.3773
v  110.0063 -0.6790 120.3884
v  100.0031 -0.6790 120.3884
v  100.0031 -0.6790 130.3773
v  110.0063 -3.6790 130.3773
v  100.0031 -3.6790 130.3773
v  60.0018 -3.6790 -79.6227
v  60.0018 -0.6790 -79.6227
v  100.0031 -0.6790 -79.6227
v  110.0063 -0.6790 -79.6227
v  150.0123 -3.6790 -79.6227
v  150.0123 -3.6790 -69.6277
v  150.0123 -0.6790 130.3773
v  150.0123 -0.6790 120.3884
v  150.0123 -3.6790 130.3773
v  150.0123 -0.6790 -79.6227
v  159.9990 -3.6790 -79.6227
v  159.9990 -3.6790 -69.6277
v  159.9990 -0.6790 130.3773
v  159.9990 -0.6790 120.3884
v  159.9990 -3.6790 130.3773
v  159.9990 -0.6790 -79.6227
v  200.0164 -3.6790 -69.6277
v  200.0164 -0.6790 130.3773
v  200.0164 -0.6790 120.3884
v  200.0164 -3.6790 130.3773
v  210.0000 -3.6790 -69.6277
v  50.0016 -3.6790 -79.6227
v  50.0016 -3.6790 -69.6277
v  10.0060 -3.6790 -69.6277
v  10.0060 -3.6790 -79.6227
v  50.0016 -0.6790 130.3773
v  50.0016 -0.6790 120.3884
v  50.0016 -3.6790 130.3773
v  10.0060 -0.6790 -79.6227
v  50.0016 -0.6790 -79.6227
v  60.0018 -3.6790 -69.6277
v  60.0018 -0.6790 130.3773
v  60.0018 -0.6790 120.3884
v  60.0018 -3.6790 130.3773
v  0.0000 -3.6790 80.3925
v  10.0060 -3.6790 80.3925
v  10.0060 -0.6790 80.3925
v  0.0000 -0.6790 80.3925
v  210.0000 -3.6790 80.3925
v  210.0000 -0.6790 80.3925
v  100.0031 -3.6790 120.3884
v  110.0063 -3.6790 120.3884
v  110.0063 -0.6790 80.3925
v  100.0031 -0.6790 80.3925
v  150.0123 -3.6790 120.3884
v  150.0123 -0.6790 80.3925
v  159.9990 -3.6790 120.3884
v  159.9990 -0.6790 80.3925
v  200.0164 -3.6790 120.3884
v  200.0164 -0.6790 80.3925
v  50.0016 -3.6790 120.3884
v  50.0016 -0.6790 80.3925
v  60.0018 -3.6790 120.3884
v  60.0018 -0.6790 80.3925
v  100.0031 -3.6790 80.3925
v  110.0063 -3.6790 80.3925
v  150.0123 -1.1790 120.3884
v  110.0063 -1.1790 120.3884
v  110.0063 -1.1790 80.3925
v  150.0123 -1.1790 80.3925
v  150.0123 -3.6790 80.3925
v  159.9990 -3.6790 80.3925
v  200.0164 -1.1790 120.3884
v  159.9990 -1.1790 120.3884
v  159.9990 -1.1790 80.3925
v  200.0164 -1.1790 80.3925
v  200.0164 -3.6790 80.3925
v  50.0016 -1.1790 120.3884
v  10.0060 -1.1790 120.3884
v  10.0060 -1.1790 80.3925
v  50.0016 -1.1790 80.3925
v  50.0016 -3.6790 80.3925
v  60.0018 -3.6790 80.3925
v  100.0031 -1.1790 120.3884
v  60.0018 -1.1790 120.3884
v  60.0018 -1.1790 80.3925
v  100.0031 -1.1790 80.3925
v  0.0000 -3.6790 70.3663
v  10.0060 -3.6790 70.3663
v  10.0060 -0.6790 70.3663
v  0.0000 -0.6790 70.3663
v  210.0000 -3.6790 70.3663
v  210.0000 -0.6790 70.3663
v  110.0063 -0.6790 70.3663
v  100.0031 -0.6790 70.3663
v  150.0123 -0.6790 70.3663
v  159.9990 -0.6790 70.3663
v  200.0164 -0.6790 70.3663
v  50.0016 -0.6790 70.3663
v  60.0018 -0.6790 70.3663
v  100.0031 -3.6790 70.3663
v  110.0063 -3.6790 70.3663
v  150.0123 -3.6790 70.3663
v  159.9990 -3.6790 70.3663
v  200.0164 -3.6790 70.3663
v  50.0016 -3.6790 70.3663
v  60.0018 -3.6790 70.3663
v  0.0000 -3.6790 30.3729
v  10.0060 -3.6790 30.3729
v  10.0060 -0.6790 30.3729
v  0.0000 -0.6790 30.3729
v  210.0000 -3.6790 30.3729
v  210.0000 -0.6790 30.3729
v  110.0063 -0.6790 30.3729
v  100.0031 -0.6790 30.3729
v  150.0123 -0.6790 30.3729
v  159.9990 -0.6790 30.3729
v  200.0164 -0.6790 30.3729
v  50.0016 -0.6790 30.3729
v  60.0018 -0.6790 30.3729
v  100.0031 -3.6790 30.3729
v  110.0063 -3.6790 30.3729
v  150.0123 -1.1790 70.3663
v  110.0063 -1.1790 70.3663
v  110.0063 -1.1790 30.3729
v  150.0123 -1.1790 30.3729
v  150.0123 -3.6790 30.3729
v  159.9990 -3.6790 30.3729
v  200.0164 -1.1790 70.3663
v  159.9990 -1.1790 70.3663
v  159.9990 -1.1790 30.3729
v  200.0164 -1.1790 30.3729
v  200.0164 -3.6790 30.3729
v  50.0016 -1.1790 70.3663
v  10.0060 -1.1790 70.3663
v  10.0060 -1.1790 30.3729
v  50.0016 -1.1790 30.3729
v  50.0016 -3.6790 30.3729
v  60.0018 -3.6790 30.3729
v  100.0031 -1.1790 70.3663
v  60.0018 -1.1790 70.3663
v  60.0018 -1.1790 30.3729
v  100.0031 -1.1790 30.3729
v  0.0000 -3.6790 20.3876
v  10.0060 -3.6790 20.3876
v  10.0060 -0.6790 20.3876
v  0.0000 -0.6790 20.3876
v  210.0000 -3.6790 20.3876
v  210.0000 -0.6790 20.3876
v  110.0063 -0.6790 20.3876
v  100.0031 -0.6790 20.3876
v  150.0123 -0.6790 20.3876
v  159.9990 -0.6790 20.3876
v  200.0164 -0.6790 20.3876
v  50.0016 -0.6790 20.3876
v  60.0018 -0.6790 20.3876
v  100.0031 -3.6790 20.3876
v  110.0063 -3.6790 20.3876
v  150.0123 -3.6790 20.3876
v  159.9990 -3.6790 20.3876
v  200.0164 -3.6790 20.3876
v  50.0016 -3.6790 20.3876
v  60.0018 -3.6790 20.3876
v  0.0000 -3.6790 -19.6332
v  10.0060 -3.6790 -19.6332
v  10.0060 -0.6790 -19.6332
v  0.0000 -0.6790 -19.6332
v  210.0000 -3.6790 -19.6332
v  210.0000 -0.6790 -19.6332
v  110.0063 -0.6790 -19.6332
v  100.0031 -0.6790 -19.6332
v  150.0123 -0.6790 -19.6332
v  159.9990 -0.6790 -19.6332
v  200.0164 -0.6790 -19.6332
v  50.0016 -0.6790 -19.6332
v  60.0018 -0.6790 -19.6332
v  100.0031 -3.6790 -19.6332
v  110.0063 -3.6790 -19.6332
v  150.0123 -1.1790 20.3876
v  110.0063 -1.1790 20.3876
v  110.0063 -1.1790 -19.6332
v  150.0123 -1.1790 -19.6332
v  150.0123 -3.6790 -19.6332
v  159.9990 -3.6790 -19.6332
v  200.0164 -1.1790 20.3876
v  159.9990 -1.1790 20.3876
v  159.9990 -1.1790 -19.6332
v  200.0164 -1.1790 -19.6332
v  200.0164 -3.6790 -19.6332
v  50.0016 -1.1790 20.3876
v  10.0060 -1.1790 20.3876
v  10.0060 -1.1790 -19.6332
v  50.0016 -1.1790 -19.6332
v  50.0016 -3.6790 -19.6332
v  60.0018 -3.6790 -19.6332
v  100.0031 -1.1790 20.3876
v  60.0018 -1.1790 20.3876
v  60.0018 -1.1790 -19.6332
v  100.0031 -1.1790 -19.6332
v  0.0000 -3.6790 -29.6065
v  10.0060 -3.6790 -29.6065
v  10.0060 -0.6790 -29.6065
v  0.0000 -0.6790 -29.6065
v  210.0000 -3.6790 -29.6065
v  210.0000 -0.6790 -29.6065
v  110.0063 -0.6790 -29.6065
v  100.0031 -0.6790 -29.6065
v  150.0123 -0.6790 -29.6065
v  159.9990 -0.6790 -29.6065
v  200.0164 -0.6790 -29.6065
v  50.0016 -0.6790 -29.6065
v  60.0018 -0.6790 -29.6065
v  100.0031 -3.6790 -29.6065
v  110.0063 -3.6790 -29.6065
v  150.0123 -3.6790 -29.6065
v  159.9990 -3.6790 -29.6065
v  200.0164 -3.6790 -29.6065
v  50.0016 -3.6790 -29.6065
v  60.0018 -3.6790 -29.6065
v  10.0060 -0.6790 -69.6277
v  210.0000 -0.6790 -69.6277
v  110.0063 -0.6790 -69.6277
v  100.0031 -0.6790 -69.6277
v  150.0123 -0.6790 -69.6277
v  159.9990 -0.6790 -69.6277
v  200.0164 -0.6790 -69.6277
v  50.0016 -0.6790 -69.6277
v  60.0018 -0.6790 -69.6277
v  150.0123 -1.1790 -29.6065
v  110.0063 -1.1790 -29.6065
v  110.0063 -1.1790 -69.6277
v  150.0123 -1.1790 -69.6277
v  200.0164 -1.1790 -29.6065
v  159.9990 -1.1790 -29.6065
v  159.9990 -1.1790 -69.6277
v  200.0164 -1.1790 -69.6277
v  50.0016 -1.1790 -29.6065
v  10.0060 -1.1790 -29.6065
v  10.0060 -1.1790 -69.6277
v  50.0016 -1.1790 -69.6277
v  100.0031 -1.1790 -29.6065
v  60.0018 -1.1790 -29.6065
v  60.0018 -1.1790 -69.6277
v  100.0031 -1.1790 -69.6277
# 264 vertices

vn 0.0000 -1.0000 -0.0000
vn 0.0000 1.0000 -0.0000
vn 0.0000 0.0000 1.0000
vn 1.0000 0.0000 -0.0000
vn 0.0000 -0.0000 -1.0000
vn 0.0000 0.0000 -1.0000
vn -1.0000 0.0000 -0.0000
vn -0.0000 0.0000 1.0000
vn -0.0000 0.0000 -1.0000
vn -0.0000 -0.0000 -1.0000
vn -0.0000 1.0000 0.0000
vn 0.0000 1.0000 0.0000
vn -0.0000 1.0000 -0.0000
vn -1.0000 0.0000 0.0000
# 14 vertex normals

vt 0.0365 0.4790 0.0000
vt 0.0586 0.4795 0.0000
vt 0.0591 0.5015 0.0000
vt 0.0367 0.5014 0.0000
vt 0.0225 0.9158 0.0000
vt 0.0225 0.9188 0.0000
vt 0.0200 0.9188 0.0000
vt 0.0200 0.9158 0.0000
vt 0.1123 0.9612 0.0000
vt 0.1123 0.9650 0.0000
vt 0.1026 0.9650 0.0000
vt 0.1026 0.9611 0.0000
vt 0.1123 0.9369 0.0000
vt 0.1123 0.9408 0.0000
vt 0.1026 0.9408 0.0000
vt 0.1026 0.9369 0.0000
vt 0.2974 0.9529 0.0000
vt 0.2974 0.9491 0.0000
vt 0.3071 0.9491 0.0000
vt 0.3071 0.9529 0.0000
vt 0.2974 0.9771 0.0000
vt 0.2974 0.9733 0.0000
vt 0.3071 0.9733 0.0000
vt 0.3071 0.9771 0.0000
vt 0.2830 0.0311 0.0000
vt 0.2826 0.0532 0.0000
vt 0.2606 0.0532 0.0000
vt 0.2601 0.0311 0.0000
vt 0.0479 0.9158 0.0000
vt 0.0479 0.9188 0.0000
vt 0.0454 0.9188 0.0000
vt 0.0454 0.9158 0.0000
vt 0.2097 0.9612 0.0000
vt 0.2097 0.9650 0.0000
vt 0.1999 0.9650 0.0000
vt 0.1999 0.9612 0.0000
vt 0.1610 0.9529 0.0000
vt 0.1610 0.9491 0.0000
vt 0.2000 0.9490 0.0000
vt 0.2000 0.9529 0.0000
vt 0.2097 0.9490 0.0000
vt 0.2097 0.9529 0.0000
vt 0.3722 0.0312 0.0000
vt 0.3726 0.0532 0.0000
vt 0.0580 0.9158 0.0000
vt 0.0580 0.9188 0.0000
vt 0.2487 0.9612 0.0000
vt 0.2487 0.9650 0.0000
vt 0.2487 0.9491 0.0000
vt 0.2487 0.9529 0.0000
vt 0.3950 0.0313 0.0000
vt 0.3946 0.0533 0.0000
vt 0.0606 0.9158 0.0000
vt 0.0606 0.9188 0.0000
vt 0.2584 0.9612 0.0000
vt 0.2584 0.9650 0.0000
vt 0.2584 0.9491 0.0000
vt 0.2584 0.9529 0.0000
vt 0.4841 0.0314 0.0000
vt 0.4846 0.0534 0.0000
vt 0.0707 0.9158 0.0000
vt 0.0707 0.9188 0.0000
vt 0.2974 0.9612 0.0000
vt 0.2974 0.9650 0.0000
vt 0.5065 0.0316 0.0000
vt 0.5066 0.0540 0.0000
vt 0.0732 0.9158 0.0000
vt 0.0732 0.9188 0.0000
vt 0.3071 0.9611 0.0000
vt 0.3071 0.9650 0.0000
vt 0.1481 0.0313 0.0000
vt 0.1486 0.0533 0.0000
vt 0.0586 0.0534 0.0000
vt 0.0591 0.0314 0.0000
vt 0.0327 0.9158 0.0000
vt 0.0327 0.9188 0.0000
vt 0.1513 0.9612 0.0000
vt 0.1513 0.9650 0.0000
vt 0.1026 0.9529 0.0000
vt 0.1026 0.9491 0.0000
vt 0.1123 0.9491 0.0000
vt 0.1123 0.9529 0.0000
vt 0.1513 0.9491 0.0000
vt 0.1513 0.9529 0.0000
vt 0.1710 0.0312 0.0000
vt 0.1705 0.0532 0.0000
vt 0.0352 0.9158 0.0000
vt 0.0352 0.9188 0.0000
vt 0.1610 0.9612 0.0000
vt 0.1610 0.9650 0.0000
vt 0.0364 0.3899 0.0000
vt 0.0584 0.3895 0.0000
vt 0.0225 0.9310 0.0000
vt 0.0200 0.9310 0.0000
vt 0.1513 0.9370 0.0000
vt 0.1513 0.9408 0.0000
vt 0.1026 0.9771 0.0000
vt 0.1026 0.9733 0.0000
vt 0.1123 0.9733 0.0000
vt 0.1123 0.9771 0.0000
vt 0.2830 0.5018 0.0000
vt 0.2601 0.5018 0.0000
vt 0.2606 0.4798 0.0000
vt 0.2826 0.4798 0.0000
vt 0.0479 0.9311 0.0000
vt 0.0454 0.9311 0.0000
vt 0.3722 0.5018 0.0000
vt 0.3726 0.4797 0.0000
vt 0.0580 0.9311 0.0000
vt 0.3950 0.5017 0.0000
vt 0.3946 0.4797 0.0000
vt 0.0606 0.9311 0.0000
vt 0.4841 0.5015 0.0000
vt 0.4846 0.4795 0.0000
vt 0.0707 0.9310 0.0000
vt 0.5065 0.5014 0.0000
vt 0.5066 0.4790 0.0000
vt 0.0732 0.9310 0.0000
vt 0.1481 0.5017 0.0000
vt 0.1486 0.4797 0.0000
vt 0.0327 0.9311 0.0000
vt 0.1710 0.5018 0.0000
vt 0.1705 0.4797 0.0000
vt 0.0352 0.9311 0.0000
vt 0.1513 0.9732 0.0000
vt 0.1513 0.9771 0.0000
vt 0.2606 0.3896 0.0000
vt 0.2826 0.3896 0.0000
vt 0.8680 0.9822 0.0000
vt 0.7815 0.9822 0.0000
vt 0.7815 0.8958 0.0000
vt 0.8680 0.8957 0.0000
vt 0.3727 0.3896 0.0000
vt 0.3946 0.3896 0.0000
vt 0.9800 0.9821 0.0000
vt 0.8935 0.9821 0.0000
vt 0.8936 0.8957 0.0000
vt 0.9801 0.8956 0.0000
vt 0.4848 0.3895 0.0000
vt 0.5068 0.3899 0.0000
vt 0.6439 0.9821 0.0000
vt 0.5575 0.9821 0.0000
vt 0.5574 0.8956 0.0000
vt 0.6439 0.8957 0.0000
vt 0.1485 0.3896 0.0000
vt 0.1705 0.3896 0.0000
vt 0.7560 0.9822 0.0000
vt 0.6695 0.9822 0.0000
vt 0.6695 0.8957 0.0000
vt 0.7559 0.8958 0.0000
vt 0.0363 0.3670 0.0000
vt 0.0583 0.3675 0.0000
vt 0.0225 0.9341 0.0000
vt 0.0200 0.9341 0.0000
vt 0.1610 0.9370 0.0000
vt 0.1610 0.9408 0.0000
vt 0.0479 0.9341 0.0000
vt 0.0454 0.9341 0.0000
vt 0.0580 0.9341 0.0000
vt 0.0606 0.9341 0.0000
vt 0.0707 0.9341 0.0000
vt 0.0732 0.9341 0.0000
vt 0.0327 0.9341 0.0000
vt 0.0352 0.9341 0.0000
vt 0.1611 0.9732 0.0000
vt 0.1611 0.9771 0.0000
vt 0.2606 0.3676 0.0000
vt 0.2826 0.3676 0.0000
vt 0.3727 0.3675 0.0000
vt 0.3947 0.3675 0.0000
vt 0.4848 0.3675 0.0000
vt 0.5069 0.3670 0.0000
vt 0.1485 0.3675 0.0000
vt 0.1705 0.3675 0.0000
vt 0.0362 0.2779 0.0000
vt 0.0583 0.2774 0.0000
vt 0.0225 0.9464 0.0000
vt 0.0200 0.9464 0.0000
vt 0.2000 0.9370 0.0000
vt 0.2000 0.9408 0.0000
vt 0.0479 0.9464 0.0000
vt 0.0454 0.9464 0.0000
vt 0.0580 0.9464 0.0000
vt 0.0606 0.9464 0.0000
vt 0.0707 0.9464 0.0000
vt 0.0732 0.9464 0.0000
vt 0.0327 0.9464 0.0000
vt 0.0352 0.9464 0.0000
vt 0.2000 0.9732 0.0000
vt 0.2000 0.9771 0.0000
vt 0.2606 0.2775 0.0000
vt 0.2826 0.2775 0.0000
vt 0.8680 0.8700 0.0000
vt 0.7816 0.8701 0.0000
vt 0.7816 0.7836 0.0000
vt 0.8681 0.7836 0.0000
vt 0.3727 0.2775 0.0000
vt 0.3947 0.2774 0.0000
vt 0.9802 0.8700 0.0000
vt 0.8937 0.8700 0.0000
vt 0.8937 0.7836 0.0000
vt 0.9802 0.7836 0.0000
vt 0.4849 0.2774 0.0000
vt 0.5069 0.2779 0.0000
vt 0.6438 0.8700 0.0000
vt 0.5573 0.8700 0.0000
vt 0.5573 0.7836 0.0000
vt 0.6438 0.7836 0.0000
vt 0.1484 0.2774 0.0000
vt 0.1705 0.2775 0.0000
vt 0.7559 0.8701 0.0000
vt 0.6694 0.8700 0.0000
vt 0.6694 0.7836 0.0000
vt 0.7559 0.7836 0.0000
vt 0.0362 0.2550 0.0000
vt 0.0583 0.2555 0.0000
vt 0.0225 0.9494 0.0000
vt 0.0200 0.9494 0.0000
vt 0.2097 0.9370 0.0000
vt 0.2097 0.9408 0.0000
vt 0.0479 0.9494 0.0000
vt 0.0454 0.9494 0.0000
vt 0.0580 0.9494 0.0000
vt 0.0606 0.9494 0.0000
vt 0.0707 0.9494 0.0000
vt 0.0732 0.9494 0.0000
vt 0.0327 0.9494 0.0000
vt 0.0352 0.9494 0.0000
vt 0.2097 0.9732 0.0000
vt 0.2097 0.9771 0.0000
vt 0.2606 0.2555 0.0000
vt 0.2826 0.2555 0.0000
vt 0.3727 0.2555 0.0000
vt 0.3947 0.2555 0.0000
vt 0.4849 0.2555 0.0000
vt 0.5069 0.2550 0.0000
vt 0.1484 0.2555 0.0000
vt 0.1705 0.2555 0.0000
vt 0.0363 0.1659 0.0000
vt 0.0583 0.1654 0.0000
vt 0.0225 0.9616 0.0000
vt 0.0200 0.9616 0.0000
vt 0.2487 0.9370 0.0000
vt 0.2487 0.9408 0.0000
vt 0.0479 0.9616 0.0000
vt 0.0454 0.9616 0.0000
vt 0.0580 0.9616 0.0000
vt 0.0606 0.9616 0.0000
vt 0.0707 0.9616 0.0000
vt 0.0732 0.9616 0.0000
vt 0.0327 0.9616 0.0000
vt 0.0352 0.9616 0.0000
vt 0.2487 0.9732 0.0000
vt 0.2487 0.9771 0.0000
vt 0.2606 0.1653 0.0000
vt 0.2826 0.1653 0.0000
vt 0.8681 0.7580 0.0000
vt 0.7816 0.7580 0.0000
vt 0.7816 0.6715 0.0000
vt 0.8680 0.6715 0.0000
vt 0.3727 0.1653 0.0000
vt 0.3947 0.1654 0.0000
vt 0.9802 0.7580 0.0000
vt 0.8937 0.7580 0.0000
vt 0.8937 0.6715 0.0000
vt 0.9802 0.6715 0.0000
vt 0.4848 0.1654 0.0000
vt 0.5069 0.1659 0.0000
vt 0.6438 0.7580 0.0000
vt 0.5573 0.7580 0.0000
vt 0.5573 0.6715 0.0000
vt 0.6438 0.6715 0.0000
vt 0.1485 0.1654 0.0000
vt 0.1705 0.1653 0.0000
vt 0.7559 0.7580 0.0000
vt 0.6694 0.7580 0.0000
vt 0.6694 0.6715 0.0000
vt 0.7559 0.6715 0.0000
vt 0.0364 0.1431 0.0000
vt 0.0584 0.1435 0.0000
vt 0.0225 0.9647 0.0000
vt 0.0200 0.9647 0.0000
vt 0.2584 0.9370 0.0000
vt 0.2584 0.9408 0.0000
vt 0.0479 0.9647 0.0000
vt 0.0454 0.9647 0.0000
vt 0.0580 0.9647 0.0000
vt 0.0606 0.9647 0.0000
vt 0.0707 0.9647 0.0000
vt 0.0732 0.9647 0.0000
vt 0.0327 0.9647 0.0000
vt 0.0352 0.9647 0.0000
vt 0.2584 0.9732 0.0000
vt 0.2584 0.9771 0.0000
vt 0.2606 0.1434 0.0000
vt 0.2826 0.1434 0.0000
vt 0.3727 0.1434 0.0000
vt 0.3946 0.1434 0.0000
vt 0.4848 0.1435 0.0000
vt 0.5068 0.1431 0.0000
vt 0.1485 0.1434 0.0000
vt 0.1705 0.1434 0.0000
vt 0.0365 0.0540 0.0000
vt 0.0225 0.9769 0.0000
vt 0.0200 0.9769 0.0000
vt 0.2974 0.9370 0.0000
vt 0.2974 0.9408 0.0000
vt 0.0479 0.9769 0.0000
vt 0.0454 0.9769 0.0000
vt 0.0580 0.9769 0.0000
vt 0.0606 0.9769 0.0000
vt 0.0707 0.9769 0.0000
vt 0.0732 0.9769 0.0000
vt 0.0327 0.9769 0.0000
vt 0.0352 0.9769 0.0000
vt 0.8680 0.6459 0.0000
vt 0.7815 0.6459 0.0000
vt 0.7815 0.5593 0.0000
vt 0.8680 0.5594 0.0000
vt 0.9801 0.6460 0.0000
vt 0.8936 0.6460 0.0000
vt 0.8935 0.5594 0.0000
vt 0.9800 0.5595 0.0000
vt 0.6439 0.6460 0.0000
vt 0.5574 0.6460 0.0000
vt 0.5575 0.5595 0.0000
vt 0.6439 0.5594 0.0000
vt 0.7559 0.6459 0.0000
vt 0.6695 0.6459 0.0000
vt 0.6695 0.5594 0.0000
vt 0.7560 0.5593 0.0000
vt 0.0367 0.0316 0.0000
vt 0.0225 0.9800 0.0000
vt 0.0200 0.9800 0.0000
vt 0.3071 0.9369 0.0000
vt 0.3071 0.9408 0.0000
vt 0.0479 0.9800 0.0000
vt 0.0454 0.9800 0.0000
vt 0.0580 0.9800 0.0000
vt 0.0606 0.9800 0.0000
vt 0.0707 0.9800 0.0000
vt 0.0732 0.9800 0.0000
vt 0.0327 0.9800 0.0000
vt 0.0352 0.9800 0.0000
vt 0.2844 0.4779 0.0000
vt 0.3708 0.4779 0.0000
vt 0.2844 0.3914 0.0000
vt 0.3709 0.3914 0.0000
vt 0.3964 0.4778 0.0000
vt 0.4829 0.4778 0.0000
vt 0.3964 0.3913 0.0000
vt 0.4829 0.3913 0.0000
vt 0.0603 0.4778 0.0000
vt 0.1468 0.4778 0.0000
vt 0.0603 0.3913 0.0000
vt 0.1467 0.3913 0.0000
vt 0.1723 0.4779 0.0000
vt 0.2588 0.4779 0.0000
vt 0.1723 0.3914 0.0000
vt 0.2588 0.3914 0.0000
vt 0.2844 0.3657 0.0000
vt 0.3709 0.3657 0.0000
vt 0.2844 0.2793 0.0000
vt 0.3709 0.2793 0.0000
vt 0.3965 0.3657 0.0000
vt 0.4830 0.3657 0.0000
vt 0.3965 0.2792 0.0000
vt 0.4830 0.2792 0.0000
vt 0.0602 0.3657 0.0000
vt 0.1466 0.3657 0.0000
vt 0.0601 0.2792 0.0000
vt 0.1466 0.2792 0.0000
vt 0.1723 0.3657 0.0000
vt 0.2588 0.3657 0.0000
vt 0.1723 0.2793 0.0000
vt 0.2588 0.2793 0.0000
vt 0.2844 0.2537 0.0000
vt 0.3709 0.2537 0.0000
vt 0.2844 0.1672 0.0000
vt 0.3709 0.1672 0.0000
vt 0.3965 0.2537 0.0000
vt 0.4830 0.2537 0.0000
vt 0.3965 0.1672 0.0000
vt 0.4830 0.1672 0.0000
vt 0.0601 0.2537 0.0000
vt 0.1466 0.2537 0.0000
vt 0.0602 0.1672 0.0000
vt 0.1466 0.1672 0.0000
vt 0.1723 0.2537 0.0000
vt 0.2588 0.2537 0.0000
vt 0.1723 0.1672 0.0000
vt 0.2588 0.1671 0.0000
vt 0.2844 0.1416 0.0000
vt 0.3709 0.1416 0.0000
vt 0.2844 0.0550 0.0000
vt 0.3708 0.0550 0.0000
vt 0.3964 0.1417 0.0000
vt 0.4829 0.1417 0.0000
vt 0.3964 0.0551 0.0000
vt 0.4829 0.0552 0.0000
vt 0.0603 0.1417 0.0000
vt 0.1467 0.1417 0.0000
vt 0.0603 0.0552 0.0000
vt 0.1468 0.0551 0.0000
vt 0.1723 0.1416 0.0000
vt 0.2588 0.1416 0.0000
vt 0.1723 0.0550 0.0000
vt 0.2588 0.0550 0.0000
# 408 texture coords

g Box001
usemtl wire_228153184
s 2
f 1/1/1 2/2/1 3/3/1 
f 3/3/1 4/4/1 1/1/1 
s 4
f 5/5/2 6/6/2 7/7/2 
f 7/7/2 8/8/2 5/5/2 
s 8
f 3/9/3 5/10/3 8/11/3 
f 8/11/3 4/12/3 3/9/3 
s 16
f 9/13/4 10/14/4 11/15/4 
f 11/15/4 12/16/4 9/13/4 
s 32
f 13/17/5 14/18/5 15/19/5 
f 15/19/5 16/20/6 13/17/5 
s 64
f 17/21/7 18/22/7 19/23/7 
f 19/23/7 20/24/7 17/21/7 
s 2
f 21/25/1 22/26/1 23/27/1 
f 23/27/1 24/28/1 21/25/1 
s 4
f 25/29/2 26/30/2 27/31/2 
f 27/31/2 28/32/2 25/29/2 
s 8
f 29/33/3 25/34/3 28/35/3 
f 28/35/3 30/36/3 29/33/3 
s 32
f 31/37/6 32/38/6 33/39/6 
f 33/39/6 24/40/6 31/37/6 
f 24/40/6 33/39/6 34/41/6 
f 34/41/6 21/42/6 24/40/6 
s 2
f 35/43/1 36/44/1 22/26/1 
f 22/26/1 21/25/1 35/43/1 
s 4
f 37/45/2 38/46/2 26/30/2 
f 26/30/2 25/29/2 37/45/2 
s 8
f 39/47/3 37/48/3 25/34/3 
f 25/34/3 29/33/3 39/47/3 
s 32
f 21/42/6 34/41/6 40/49/6 
f 40/49/6 35/50/6 21/42/6 
s 2
f 41/51/1 42/52/1 36/44/1 
f 36/44/1 35/43/1 41/51/1 
s 4
f 43/53/2 44/54/2 38/46/2 
f 38/46/2 37/45/2 43/53/2 
s 8
f 45/55/8 43/56/8 37/48/3 
f 37/48/3 39/47/3 45/55/8 
s 32
f 35/50/6 40/49/6 46/57/9 
f 46/57/9 41/58/10 35/50/6 
s 2
f 13/59/1 47/60/1 42/52/1 
f 42/52/1 41/51/1 13/59/1 
s 4
f 48/61/2 49/62/2 44/54/2 
f 44/54/2 43/53/2 48/61/2 
s 8
f 50/63/3 48/64/3 43/56/8 
f 43/56/8 45/55/8 50/63/3 
s 32
f 41/58/10 46/57/9 14/18/5 
f 14/18/5 13/17/5 41/58/10 
s 2
f 16/65/1 51/66/1 47/60/1 
f 47/60/1 13/59/1 16/65/1 
s 4
f 11/67/2 10/68/2 49/62/2 
f 49/62/2 48/61/2 11/67/2 
s 8
f 12/69/3 11/70/3 48/64/3 
f 48/64/3 50/63/3 12/69/3 
s 2
f 52/71/1 53/72/1 54/73/1 
f 54/73/1 55/74/1 52/71/1 
s 4
f 56/75/2 57/76/2 6/6/2 
f 6/6/2 5/5/2 56/75/2 
s 8
f 58/77/3 56/78/3 5/10/3 
f 5/10/3 3/9/3 58/77/3 
s 32
f 20/79/6 19/80/6 59/81/6 
f 59/81/6 55/82/6 20/79/6 
f 55/82/6 59/81/6 60/83/6 
f 60/83/6 52/84/6 55/82/6 
s 2
f 31/85/1 61/86/1 53/72/1 
f 53/72/1 52/71/1 31/85/1 
s 4
f 62/87/2 63/88/2 57/76/2 
f 57/76/2 56/75/2 62/87/2 
s 8
f 64/89/3 62/90/3 56/78/3 
f 56/78/3 58/77/3 64/89/3 
s 32
f 52/84/6 60/83/6 32/38/6 
f 32/38/6 31/37/6 52/84/6 
s 2
f 24/28/1 23/27/1 61/86/1 
f 61/86/1 31/85/1 24/28/1 
s 4
f 28/32/2 27/31/2 63/88/2 
f 63/88/2 62/87/2 28/32/2 
s 8
f 30/36/3 28/35/3 62/90/3 
f 62/90/3 64/89/3 30/36/3 
s 2
f 65/91/1 66/92/1 2/2/1 
f 2/2/1 1/1/1 65/91/1 
s 4
f 67/93/2 68/94/2 7/7/2 
f 7/7/2 6/6/2 67/93/2 
s 16
f 69/95/4 70/96/4 10/14/4 
f 10/14/4 9/13/4 69/95/4 
s 64
f 4/97/7 8/98/7 7/99/7 
f 7/99/7 1/100/7 4/97/7 
s 2
f 29/101/1 30/102/1 71/103/1 
f 71/103/1 72/104/1 29/101/1 
s 4
f 73/105/2 74/106/2 27/31/2 
f 27/31/2 26/30/2 73/105/2 
s 2
f 39/107/1 29/101/1 72/104/1 
f 72/104/1 75/108/1 39/107/1 
s 4
f 76/109/2 73/105/2 26/30/2 
f 26/30/2 38/46/2 76/109/2 
s 2
f 45/110/1 39/107/1 75/108/1 
f 75/108/1 77/111/1 45/110/1 
s 4
f 78/112/2 76/109/2 38/46/2 
f 38/46/2 44/54/2 78/112/2 
s 2
f 50/113/1 45/110/1 77/111/1 
f 77/111/1 79/114/1 50/113/1 
s 4
f 80/115/2 78/112/2 44/54/2 
f 44/54/2 49/62/2 80/115/2 
s 2
f 12/116/1 50/113/1 79/114/1 
f 79/114/1 9/117/1 12/116/1 
s 4
f 70/118/2 80/115/2 49/62/2 
f 49/62/2 10/68/2 70/118/2 
s 2
f 58/119/1 3/3/1 2/2/1 
f 2/2/1 81/120/1 58/119/1 
s 4
f 82/121/2 67/93/2 6/6/2 
f 6/6/2 57/76/2 82/121/2 
s 2
f 64/122/1 58/119/1 81/120/1 
f 81/120/1 83/123/1 64/122/1 
s 4
f 84/124/2 82/121/2 57/76/2 
f 57/76/2 63/88/2 84/124/2 
s 2
f 30/102/1 64/122/1 83/123/1 
f 83/123/1 71/103/1 30/102/1 
s 4
f 74/106/2 84/124/2 63/88/2 
f 63/88/2 27/31/2 74/106/2 
s 64
f 1/100/7 7/99/7 68/125/7 
f 68/125/7 65/126/7 1/100/7 
s 2
f 72/104/1 71/103/1 85/127/1 
f 85/127/1 86/128/1 72/104/1 
f 87/129/1 88/130/1 89/131/1 
f 89/131/1 90/132/1 87/129/1 
f 77/111/1 75/108/1 91/133/1 
f 91/133/1 92/134/1 77/111/1 
f 93/135/1 94/136/1 95/137/1 
f 95/137/1 96/138/1 93/135/1 
f 9/117/1 79/114/1 97/139/1 
f 97/139/1 69/140/1 9/117/1 
f 98/141/1 99/142/1 100/143/1 
f 100/143/1 101/144/1 98/141/1 
f 83/123/1 81/120/1 102/145/1 
f 102/145/1 103/146/1 83/123/1 
f 104/147/1 105/148/1 106/149/1 
f 106/149/1 107/150/1 104/147/1 
f 108/151/1 109/152/1 66/92/1 
f 66/92/1 65/91/1 108/151/1 
s 4
f 110/153/2 111/154/2 68/94/2 
f 68/94/2 67/93/2 110/153/2 
s 16
f 112/155/4 113/156/4 70/96/4 
f 70/96/4 69/95/4 112/155/4 
s 4
f 114/157/2 115/158/2 74/106/2 
f 74/106/2 73/105/2 114/157/2 
f 116/159/2 114/157/2 73/105/2 
f 73/105/2 76/109/2 116/159/2 
f 117/160/11 116/159/2 76/109/2 
f 76/109/2 78/112/2 117/160/11 
f 118/161/12 117/160/11 78/112/2 
f 78/112/2 80/115/2 118/161/12 
f 113/162/2 118/161/12 80/115/2 
f 80/115/2 70/118/2 113/162/2 
f 119/163/2 110/153/2 67/93/2 
f 67/93/2 82/121/2 119/163/2 
f 120/164/2 119/163/2 82/121/2 
f 82/121/2 84/124/2 120/164/2 
f 115/158/2 120/164/2 84/124/2 
f 84/124/2 74/106/2 115/158/2 
s 64
f 65/126/7 68/125/7 111/165/7 
f 111/165/7 108/166/7 65/126/7 
s 2
f 86/128/1 85/127/1 121/167/1 
f 121/167/1 122/168/1 86/128/1 
f 91/133/1 86/128/1 122/168/1 
f 122/168/1 123/169/1 91/133/1 
f 92/134/1 91/133/1 123/169/1 
f 123/169/1 124/170/1 92/134/1 
f 97/139/1 92/134/1 124/170/1 
f 124/170/1 125/171/1 97/139/1 
f 69/140/1 97/139/1 125/171/1 
f 125/171/1 112/172/1 69/140/1 
f 102/145/1 66/92/1 109/152/1 
f 109/152/1 126/173/1 102/145/1 
f 103/146/1 102/145/1 126/173/1 
f 126/173/1 127/174/1 103/146/1 
f 85/127/1 103/146/1 127/174/1 
f 127/174/1 121/167/1 85/127/1 
f 128/175/1 129/176/1 109/152/1 
f 109/152/1 108/151/1 128/175/1 
s 4
f 130/177/2 131/178/2 111/154/2 
f 111/154/2 110/153/2 130/177/2 
s 16
f 132/179/4 133/180/4 113/156/4 
f 113/156/4 112/155/4 132/179/4 
s 4
f 134/181/2 135/182/2 115/158/2 
f 115/158/2 114/157/2 134/181/2 
f 136/183/2 134/181/2 114/157/2 
f 114/157/2 116/159/2 136/183/2 
f 137/184/13 136/183/2 116/159/2 
f 116/159/2 117/160/11 137/184/13 
f 138/185/12 137/184/13 117/160/11 
f 117/160/11 118/161/12 138/185/12 
f 133/186/12 138/185/12 118/161/12 
f 118/161/12 113/162/2 133/186/12 
f 139/187/2 130/177/2 110/153/2 
f 110/153/2 119/163/2 139/187/2 
f 140/188/2 139/187/2 119/163/2 
f 119/163/2 120/164/2 140/188/2 
f 135/182/2 140/188/2 120/164/2 
f 120/164/2 115/158/2 135/182/2 
s 64
f 108/166/7 111/165/7 131/189/7 
f 131/189/7 128/190/7 108/166/7 
s 2
f 122/168/1 121/167/1 141/191/1 
f 141/191/1 142/192/1 122/168/1 
f 143/193/1 144/194/1 145/195/1 
f 145/195/1 146/196/1 143/193/1 
f 124/170/1 123/169/1 147/197/1 
f 147/197/1 148/198/1 124/170/1 
f 149/199/1 150/200/1 151/201/1 
f 151/201/1 152/202/1 149/199/1 
f 112/172/1 125/171/1 153/203/1 
f 153/203/1 132/204/1 112/172/1 
f 154/205/1 155/206/1 156/207/1 
f 156/207/1 157/208/1 154/205/1 
f 127/174/1 126/173/1 158/209/1 
f 158/209/1 159/210/1 127/174/1 
f 160/211/1 161/212/1 162/213/1 
f 162/213/1 163/214/1 160/211/1 
f 164/215/1 165/216/1 129/176/1 
f 129/176/1 128/175/1 164/215/1 
s 4
f 166/217/2 167/218/2 131/178/2 
f 131/178/2 130/177/2 166/217/2 
s 16
f 168/219/4 169/220/4 133/180/4 
f 133/180/4 132/179/4 168/219/4 
s 4
f 170/221/2 171/222/2 135/182/2 
f 135/182/2 134/181/2 170/221/2 
f 172/223/2 170/221/2 134/181/2 
f 134/181/2 136/183/2 172/223/2 
f 173/224/13 172/223/2 136/183/2 
f 136/183/2 137/184/13 173/224/13 
f 174/225/2 173/224/13 137/184/13 
f 137/184/13 138/185/12 174/225/2 
f 169/226/2 174/225/2 138/185/12 
f 138/185/12 133/186/12 169/226/2 
f 175/227/2 166/217/2 130/177/2 
f 130/177/2 139/187/2 175/227/2 
f 176/228/2 175/227/2 139/187/2 
f 139/187/2 140/188/2 176/228/2 
f 171/222/2 176/228/2 140/188/2 
f 140/188/2 135/182/2 171/222/2 
s 64
f 128/190/7 131/189/7 167/229/7 
f 167/229/7 164/230/7 128/190/7 
s 2
f 142/192/1 141/191/1 177/231/1 
f 177/231/1 178/232/1 142/192/1 
f 147/197/1 142/192/1 178/232/1 
f 178/232/1 179/233/1 147/197/1 
f 148/198/1 147/197/1 179/233/1 
f 179/233/1 180/234/1 148/198/1 
f 153/203/1 148/198/1 180/234/1 
f 180/234/1 181/235/1 153/203/1 
f 132/204/1 153/203/1 181/235/1 
f 181/235/1 168/236/1 132/204/1 
f 158/209/1 129/176/1 165/216/1 
f 165/216/1 182/237/1 158/209/1 
f 159/210/1 158/209/1 182/237/1 
f 182/237/1 183/238/1 159/210/1 
f 141/191/1 159/210/1 183/238/1 
f 183/238/1 177/231/1 141/191/1 
f 184/239/1 185/240/1 165/216/1 
f 165/216/1 164/215/1 184/239/1 
s 4
f 186/241/2 187/242/2 167/218/2 
f 167/218/2 166/217/2 186/241/2 
s 16
f 188/243/4 189/244/4 169/220/4 
f 169/220/4 168/219/4 188/243/4 
s 4
f 190/245/2 191/246/2 171/222/2 
f 171/222/2 170/221/2 190/245/2 
f 192/247/2 190/245/2 170/221/2 
f 170/221/2 172/223/2 192/247/2 
f 193/248/13 192/247/2 172/223/2 
f 172/223/2 173/224/13 193/248/13 
f 194/249/2 193/248/13 173/224/13 
f 173/224/13 174/225/2 194/249/2 
f 189/250/2 194/249/2 174/225/2 
f 174/225/2 169/226/2 189/250/2 
f 195/251/2 186/241/2 166/217/2 
f 166/217/2 175/227/2 195/251/2 
f 196/252/2 195/251/2 175/227/2 
f 175/227/2 176/228/2 196/252/2 
f 191/246/2 196/252/2 176/228/2 
f 176/228/2 171/222/2 191/246/2 
s 64
f 164/230/7 167/229/7 187/253/7 
f 187/253/7 184/254/7 164/230/7 
s 2
f 178/232/1 177/231/1 197/255/1 
f 197/255/1 198/256/1 178/232/1 
f 199/257/1 200/258/1 201/259/1 
f 201/259/1 202/260/1 199/257/1 
f 180/234/1 179/233/1 203/261/1 
f 203/261/1 204/262/1 180/234/1 
f 205/263/1 206/264/1 207/265/1 
f 207/265/1 208/266/1 205/263/1 
f 168/236/1 181/235/1 209/267/1 
f 209/267/1 188/268/1 168/236/1 
f 210/269/1 211/270/1 212/271/1 
f 212/271/1 213/272/1 210/269/1 
f 183/238/1 182/237/1 214/273/1 
f 214/273/1 215/274/1 183/238/1 
f 216/275/1 217/276/1 218/277/1 
f 218/277/1 219/278/1 216/275/1 
f 220/279/1 221/280/1 185/240/1 
f 185/240/1 184/239/1 220/279/1 
s 4
f 222/281/2 223/282/2 187/242/2 
f 187/242/2 186/241/2 222/281/2 
s 16
f 224/283/4 225/284/4 189/244/4 
f 189/244/4 188/243/4 224/283/4 
s 4
f 226/285/2 227/286/2 191/246/2 
f 191/246/2 190/245/2 226/285/2 
f 228/287/2 226/285/2 190/245/2 
f 190/245/2 192/247/2 228/287/2 
f 229/288/13 228/287/2 192/247/2 
f 192/247/2 193/248/13 229/288/13 
f 230/289/2 229/288/13 193/248/13 
f 193/248/13 194/249/2 230/289/2 
f 225/290/2 230/289/2 194/249/2 
f 194/249/2 189/250/2 225/290/2 
f 231/291/2 222/281/2 186/241/2 
f 186/241/2 195/251/2 231/291/2 
f 232/292/2 231/291/2 195/251/2 
f 195/251/2 196/252/2 232/292/2 
f 227/286/2 232/292/2 196/252/2 
f 196/252/2 191/246/2 227/286/2 
s 64
f 184/254/7 187/253/7 223/293/7 
f 223/293/7 220/294/7 184/254/7 
s 2
f 198/256/1 197/255/1 233/295/1 
f 233/295/1 234/296/1 198/256/1 
f 203/261/1 198/256/1 234/296/1 
f 234/296/1 235/297/1 203/261/1 
f 204/262/1 203/261/1 235/297/1 
f 235/297/1 236/298/1 204/262/1 
f 209/267/1 204/262/1 236/298/1 
f 236/298/1 237/299/1 209/267/1 
f 188/268/1 209/267/1 237/299/1 
f 237/299/1 224/300/1 188/268/1 
f 214/273/1 185/240/1 221/280/1 
f 221/280/1 238/301/1 214/273/1 
f 215/274/1 214/273/1 238/301/1 
f 238/301/1 239/302/1 215/274/1 
f 197/255/1 215/274/1 239/302/1 
f 239/302/1 233/295/1 197/255/1 
f 17/303/1 54/73/1 221/280/1 
f 221/280/1 220/279/1 17/303/1 
s 4
f 240/304/2 18/305/2 223/282/2 
f 223/282/2 222/281/2 240/304/2 
s 16
f 51/306/4 241/307/4 225/284/4 
f 225/284/4 224/283/4 51/306/4 
s 4
f 242/308/2 243/309/2 227/286/2 
f 227/286/2 226/285/2 242/308/2 
f 244/310/2 242/308/2 226/285/2 
f 226/285/2 228/287/2 244/310/2 
f 245/311/11 244/310/2 228/287/2 
f 228/287/2 229/288/13 245/311/11 
f 246/312/2 245/311/11 229/288/13 
f 229/288/13 230/289/2 246/312/2 
f 241/313/12 246/312/2 230/289/2 
f 230/289/2 225/290/2 241/313/12 
f 247/314/2 240/304/2 222/281/2 
f 222/281/2 231/291/2 247/314/2 
f 248/315/2 247/314/2 231/291/2 
f 231/291/2 232/292/2 248/315/2 
f 243/309/2 248/315/2 232/292/2 
f 232/292/2 227/286/2 243/309/2 
s 64
f 220/294/7 223/293/7 18/22/7 
f 18/22/7 17/21/7 220/294/7 
s 2
f 234/296/1 233/295/1 23/27/1 
f 23/27/1 22/26/1 234/296/1 
f 249/316/1 250/317/1 251/318/1 
f 251/318/1 252/319/1 249/316/1 
f 236/298/1 235/297/1 36/44/1 
f 36/44/1 42/52/1 236/298/1 
f 253/320/1 254/321/1 255/322/1 
f 255/322/1 256/323/1 253/320/1 
f 224/300/1 237/299/1 47/60/1 
f 47/60/1 51/66/1 224/300/1 
f 257/324/1 258/325/1 259/326/1 
f 259/326/1 260/327/1 257/324/1 
f 239/302/1 238/301/1 53/72/1 
f 53/72/1 61/86/1 239/302/1 
f 261/328/1 262/329/1 263/330/1 
f 263/330/1 264/331/1 261/328/1 
f 20/332/1 55/74/1 54/73/1 
f 54/73/1 17/303/1 20/332/1 
s 4
f 59/333/2 19/334/2 18/305/2 
f 18/305/2 240/304/2 59/333/2 
s 16
f 16/335/4 15/336/4 241/307/4 
f 241/307/4 51/306/4 16/335/4 
s 4
f 34/337/2 33/338/2 243/309/2 
f 243/309/2 242/308/2 34/337/2 
f 40/339/2 34/337/2 242/308/2 
f 242/308/2 244/310/2 40/339/2 
f 46/340/13 40/339/2 244/310/2 
f 244/310/2 245/311/11 46/340/13 
f 14/341/2 46/340/13 245/311/11 
f 245/311/11 246/312/2 14/341/2 
f 15/342/2 14/341/2 246/312/2 
f 246/312/2 241/313/12 15/342/2 
f 60/343/2 59/333/2 240/304/2 
f 240/304/2 247/314/2 60/343/2 
f 32/344/2 60/343/2 247/314/2 
f 247/314/2 248/315/2 32/344/2 
f 33/338/2 32/344/2 248/315/2 
f 248/315/2 243/309/2 33/338/2 
s off
f 75/108/6 72/104/6 88/345/6 
f 88/345/6 87/346/6 75/108/6 
f 72/104/4 86/128/4 89/347/4 
f 89/347/4 88/345/4 72/104/4 
f 86/128/3 91/133/3 90/348/3 
f 90/348/3 89/347/3 86/128/3 
f 91/133/7 75/108/7 87/346/7 
f 87/346/7 90/348/7 91/133/7 
f 79/114/6 77/111/6 94/349/6 
f 94/349/6 93/350/6 79/114/6 
f 77/111/4 92/134/4 95/351/4 
f 95/351/4 94/349/4 77/111/4 
f 92/134/8 97/139/8 96/352/8 
f 96/352/8 95/351/8 92/134/8 
f 97/139/7 79/114/7 93/350/7 
f 93/350/7 96/352/7 97/139/7 
f 81/120/6 2/2/6 99/353/6 
f 99/353/6 98/354/6 81/120/6 
f 2/2/4 66/92/4 100/355/4 
f 100/355/4 99/353/4 2/2/4 
f 66/92/3 102/145/3 101/356/3 
f 101/356/3 100/355/3 66/92/3 
f 102/145/7 81/120/7 98/354/7 
f 98/354/7 101/356/7 102/145/7 
f 71/103/6 83/123/6 105/357/6 
f 105/357/6 104/358/6 71/103/6 
f 83/123/4 103/146/4 106/359/4 
f 106/359/4 105/357/4 83/123/4 
f 103/146/3 85/127/3 107/360/3 
f 107/360/3 106/359/3 103/146/3 
f 85/127/7 71/103/7 104/358/7 
f 104/358/7 107/360/7 85/127/7 
f 123/169/6 122/168/6 144/361/6 
f 144/361/6 143/362/6 123/169/6 
f 122/168/4 142/192/4 145/363/4 
f 145/363/4 144/361/4 122/168/4 
f 142/192/3 147/197/3 146/364/3 
f 146/364/3 145/363/3 142/192/3 
f 147/197/7 123/169/7 143/362/7 
f 143/362/7 146/364/7 147/197/7 
f 125/171/6 124/170/6 150/365/6 
f 150/365/6 149/366/6 125/171/6 
f 124/170/4 148/198/4 151/367/4 
f 151/367/4 150/365/4 124/170/4 
f 148/198/8 153/203/8 152/368/8 
f 152/368/8 151/367/8 148/198/8 
f 153/203/14 125/171/14 149/366/14 
f 149/366/14 152/368/14 153/203/14 
f 126/173/6 109/152/6 155/369/6 
f 155/369/6 154/370/6 126/173/6 
f 109/152/4 129/176/4 156/371/4 
f 156/371/4 155/369/4 109/152/4 
f 129/176/3 158/209/3 157/372/3 
f 157/372/3 156/371/3 129/176/3 
f 158/209/7 126/173/7 154/370/7 
f 154/370/7 157/372/7 158/209/7 
f 121/167/6 127/174/6 161/373/6 
f 161/373/6 160/374/6 121/167/6 
f 127/174/4 159/210/4 162/375/4 
f 162/375/4 161/373/4 127/174/4 
f 159/210/3 141/191/3 163/376/3 
f 163/376/3 162/375/3 159/210/3 
f 141/191/7 121/167/7 160/374/7 
f 160/374/7 163/376/7 141/191/7 
f 179/233/6 178/232/6 200/377/6 
f 200/377/6 199/378/6 179/233/6 
f 178/232/4 198/256/4 201/379/4 
f 201/379/4 200/377/4 178/232/4 
f 198/256/3 203/261/3 202/380/3 
f 202/380/3 201/379/3 198/256/3 
f 203/261/7 179/233/7 199/378/7 
f 199/378/7 202/380/7 203/261/7 
f 181/235/6 180/234/6 206/381/6 
f 206/381/6 205/382/6 181/235/6 
f 180/234/4 204/262/4 207/383/4 
f 207/383/4 206/381/4 180/234/4 
f 204/262/8 209/267/8 208/384/8 
f 208/384/8 207/383/8 204/262/8 
f 209/267/7 181/235/7 205/382/7 
f 205/382/7 208/384/7 209/267/7 
f 182/237/6 165/216/6 211/385/6 
f 211/385/6 210/386/6 182/237/6 
f 165/216/4 185/240/4 212/387/4 
f 212/387/4 211/385/4 165/216/4 
f 185/240/3 214/273/3 213/388/3 
f 213/388/3 212/387/3 185/240/3 
f 214/273/7 182/237/7 210/386/7 
f 210/386/7 213/388/7 214/273/7 
f 177/231/6 183/238/6 217/389/6 
f 217/389/6 216/390/6 177/231/6 
f 183/238/4 215/274/4 218/391/4 
f 218/391/4 217/389/4 183/238/4 
f 215/274/3 197/255/3 219/392/3 
f 219/392/3 218/391/3 215/274/3 
f 197/255/7 177/231/7 216/390/7 
f 216/390/7 219/392/7 197/255/7 
f 235/297/6 234/296/6 250/393/6 
f 250/393/6 249/394/6 235/297/6 
f 234/296/4 22/26/4 251/395/4 
f 251/395/4 250/393/4 234/296/4 
f 22/26/3 36/44/3 252/396/3 
f 252/396/3 251/395/3 22/26/3 
f 36/44/14 235/297/14 249/394/14 
f 249/394/14 252/396/14 36/44/14 
f 237/299/6 236/298/6 254/397/6 
f 254/397/6 253/398/6 237/299/6 
f 236/298/4 42/52/4 255/399/4 
f 255/399/4 254/397/4 236/298/4 
f 42/52/3 47/60/3 256/400/3 
f 256/400/3 255/399/3 42/52/3 
f 47/60/7 237/299/7 253/398/7 
f 253/398/7 256/400/7 47/60/7 
f 238/301/6 221/280/6 258/401/6 
f 258/401/6 257/402/6 238/301/6 
f 221/280/4 54/73/4 259/403/4 
f 259/403/4 258/401/4 221/280/4 
f 54/73/3 53/72/3 260/404/3 
f 260/404/3 259/403/3 54/73/3 
f 53/72/7 238/301/7 257/402/7 
f 257/402/7 260/404/7 53/72/7 
f 233/295/6 239/302/6 262/405/6 
f 262/405/6 261/406/6 233/295/6 
f 239/302/4 61/86/4 263/407/4 
f 263/407/4 262/405/4 239/302/4 
f 61/86/3 23/27/3 264/408/3 
f 264/408/3 263/407/3 61/86/3 
f 23/27/7 233/295/7 261/406/7 
f 261/406/7 264/408/7 23/27/7 
# 524 faces

